{
  "title": "Web page",
  "description": "Displays a web page",
  "icon": "<path d=\"M30,54c-3.2,0-6.4-0.6-9.3-1.9c-2.9-1.2-5.4-3-7.6-5.2c-2.2-2.2-3.9-4.8-5.2-7.6C6.6,36.4,6,33.2,6,30c0-3.2,0.6-6.4,1.9-9.3c1.2-2.8,3-5.4,5.2-7.6c2.2-2.2,4.8-3.9,7.6-5.2C23.6,6.6,26.8,6,30,6c3.2,0,6.4,0.6,9.3,1.9c2.8,1.2,5.4,3,7.6,5.2c2.2,2.2,3.9,4.8,5.2,7.6c1.3,2.9,1.9,6.1,1.9,9.3c0,3.2-0.6,6.4-1.9,9.3c-1.2,2.9-3,5.4-5.2,7.6c-2.2,2.2-4.8,3.9-7.6,5.2C36.4,53.4,33.2,54,30,54z M30,50.2c1.2-1.6,2.3-3.4,3.3-5.2c0.9-1.8,1.6-3.7,2.2-5.7H24.6c0.5,2,1.3,3.9,2.2,5.8C27.7,46.9,28.8,48.6,30,50.2z M25.1,49.5c-1-1.5-1.9-3.1-2.6-4.7c-0.8-1.8-1.4-3.6-1.8-5.4h-8.6c1.3,2.6,3.1,4.8,5.4,6.6C19.7,47.7,22.3,48.9,25.1,49.5z M34.9,49.5c2.8-0.6,5.4-1.8,7.6-3.6c2.2-1.8,4.1-4,5.4-6.6h-8.6c-0.5,1.9-1.1,3.7-1.9,5.5C36.7,46.4,35.9,48,34.9,49.5z M10.6,35.5H20c-0.2-0.9-0.3-1.9-0.3-2.8c-0.1-0.9-0.1-1.8-0.1-2.7c0-0.9,0-1.8,0.1-2.7s0.2-1.8,0.3-2.8h-9.4c-0.2,0.9-0.4,1.8-0.6,2.7c-0.1,0.9-0.2,1.9-0.2,2.8c0,0.9,0.1,1.9,0.2,2.8C10.1,33.7,10.3,34.6,10.6,35.5z M23.7,35.5h12.6c0.2-0.9,0.3-1.9,0.3-2.7s0.1-1.8,0.1-2.8c0-0.9,0-1.9-0.1-2.8c-0.1-0.9-0.2-1.8-0.3-2.7H23.7c-0.2,0.9-0.3,1.9-0.3,2.7c-0.1,0.9-0.1,1.8-0.1,2.8c0,0.9,0,1.9,0.1,2.8C23.5,33.6,23.6,34.5,23.7,35.5L23.7,35.5z M40.1,35.5h9.4c0.2-0.9,0.4-1.8,0.6-2.7c0.1-0.9,0.2-1.9,0.2-2.8c0-0.9-0.1-1.9-0.2-2.8c-0.1-0.9-0.3-1.8-0.6-2.7h-9.4c0.2,0.9,0.3,1.9,0.3,2.8c0.1,0.9,0.1,1.8,0.1,2.7c0,0.9,0,1.8-0.1,2.7C40.4,33.6,40.2,34.6,40.1,35.5L40.1,35.5z M39.3,20.7h8.6c-1.3-2.6-3.1-4.8-5.3-6.6c-2.2-1.8-4.9-3-7.6-3.6c1,1.5,1.9,3.1,2.6,4.8C38.2,17.1,38.9,18.9,39.3,20.7L39.3,20.7z M24.6,20.7h10.8c-0.5-2-1.3-4-2.2-5.8c-0.9-1.8-2-3.5-3.2-5c-1.2,1.6-2.3,3.3-3.2,5C25.9,16.8,25.2,18.7,24.6,20.7z M12.2,20.7h8.6c0.5-1.8,1.1-3.6,1.8-5.4c0.7-1.7,1.6-3.3,2.6-4.8c-2.8,0.6-5.4,1.8-7.7,3.6C15.2,15.9,13.4,18.2,12.2,20.7L12.2,20.7z\"/>",
  "moduleName": "centreon-widget-webpage",
  "options": {
    "url": {
      "type": "textfield",
      "defaultValue": "",
      "label": "URL",
      "required": true,
      "secondaryLabel": "URL"
    },
    "refreshInterval": {
      "type": "refresh-interval",
      "defaultValue": "default",
      "label": "Interval"
    }
  },
  "message": {
    "label": "Please note that domains outside your organization must be authorized in your Apache configuration.",
    "icon": "<path fill-rule=\"evenodd\" d=\"M15.35 8c0 3.377-2.945 6.25-6.75 6.25S1.85 11.377 1.85 8 4.795 1.75 8.6 1.75 15.35 4.623 15.35 8zm1.25 0c0 4.142-3.582 7.5-8 7.5S.6 12.142.6 8C.6 3.858 4.182.5 8.6.5s8 3.358 8 7.5zM9.229 3.101l-.014 7.3-1.25-.002.014-7.3 1.25.002zm.016 9.249a.65.65 0 1 0-1.3 0 .65.65 0 0 0 1.3 0z\"/>"
  },
  "availableOnPremOnly": true,
  "canExpand": true
}
