{
  "title": "Top/bottom",
  "description": "Displays the top or bottom x hosts, for a selected metric.",
  "icon": "<rect x=\"6\" y=\"25\" width=\"30\" height=\"10\" rx=\"4\" ry=\"4\"></rect><rect x=\"6\" y=\"11\" width=\"20\" height=\"10\" rx=\"4\" ry=\"4\"></rect><rect x=\"6\" y=\"39\" width=\"48\" height=\"10\" rx=\"4\" ry=\"4\"></rect>",
  "options": {
    "topBottomSettings": {
      "type": "top-bottom-settings",
      "label": "Top Bottom Settings",
      "defaultValue": {
        "numberOfValues": 10,
        "order": "top",
        "showLabels": true
      }
    },
    "valueFormat": {
      "type": "value-format",
      "defaultValue": "human",
      "label": "Value format"
    },
    "threshold": {
      "type": "threshold",
      "defaultValue": {
        "enabled": true,
        "customCritical": null,
        "criticalType": "default",
        "customWarning": null,
        "warningType": "default",
        "baseColor": null
      },
      "label": "threshold"
    },
    "refreshInterval": {
      "type": "refresh-interval",
      "defaultValue": "default",
      "label": "Interval"
    }
  },
  "data": {
    "resources": {
      "type": "resources",
      "defaultValue": []
    },
    "metrics": {
      "type": "metrics",
      "defaultValue": []
    }
  },
  "singleMetricSelection": true,
  "customBaseColor": false,
  "moduleName": "centreon-widget-topbottom",
  "canExpand": true
}
